…
  - `salsa()` : to create new columns
  - `chacha()`: to reorganize a grouped tibble so that data for each
    group is contiguous
  - `samba()` : `chacha()` + `salsa()`

<!-- end list -->

``` r
g %>% 
  salsa(
    Sepal = ~Sepal.Length * Sepal.Width, 
    Petal = ~Petal.Length * Petal.Width
  )
#> # A tibble: 150 x 2
#>    Sepal Petal
#>    <dbl> <dbl>
#>  1  17.8 0.280
#>  2  14.7 0.280
#>  3  15.0 0.26 
#>  4  14.3 0.3  
#>  5  18   0.280
#>  6  21.1 0.68 
#>  7  15.6 0.42 
#>  8  17   0.3  
#>  9  12.8 0.280
#> 10  15.2 0.15 
#> # … with 140 more rows
```

You can `swing()`, `twist()`, `rumba()` and `zumba()` here too, and if
you want the original data, you can use `samba()` instead of `salsa()`:

``` r
g %>% 
  samba(centered = twist(~ . - mean(.), everything(), -Species))
#> # A tibble: 150 x 6
#>    Sepal.Length Sepal.Width Petal.Length Petal.Width Species
#>           <dbl>       <dbl>        <dbl>       <dbl> <fct>  
#>  1          5.1         3.5          1.4         0.2 setosa 
#>  2          4.9         3            1.4         0.2 setosa 
#>  3          4.7         3.2          1.3         0.2 setosa 
#>  4          4.6         3.1          1.5         0.2 setosa 
#>  5          5           3.6          1.4         0.2 setosa 
#>  6          5.4         3.9          1.7         0.4 setosa 
#>  7          4.6         3.4          1.4         0.3 setosa 
#>  8          5           3.4          1.5         0.2 setosa 
#>  9          4.4         2.9          1.4         0.2 setosa 
#> 10          4.9         3.1          1.5         0.1 setosa 
#> # … with 140 more rows, and 4 more variables: centered$Sepal.Length <dbl>,
#> #   $Sepal.Width <dbl>, $Petal.Length <dbl>, $Petal.Width <dbl>
```

`madison()` packs the columns `salsa()` would have created

``` r
g %>% 
  madison(swing(~ . - mean(.), starts_with("Sepal")))
#> # A tibble: 150 x 6
#>    Sepal.Length Sepal.Width Petal.Length Petal.Width Species
#>           <dbl>       <dbl>        <dbl>       <dbl> <fct>  
#>  1          5.1         3.5          1.4         0.2 setosa 
#>  2          4.9         3            1.4         0.2 setosa 
#>  3          4.7         3.2          1.3         0.2 setosa 
#>  4          4.6         3.1          1.5         0.2 setosa 
#>  5          5           3.6          1.4         0.2 setosa 
#>  6          5.4         3.9          1.7         0.4 setosa 
#>  7          4.6         3.4          1.4         0.3 setosa 
#>  8          5           3.4          1.5         0.2 setosa 
#>  9          4.4         2.9          1.4         0.2 setosa 
#> 10          4.9         3.1          1.5         0.1 setosa 
#> # … with 140 more rows, and 2 more variables: data$Sepal.Length <dbl>,
#> #   $Sepal.Width <dbl>
```
…
g %>% 
  bolero(mambo(~. > 4, starts_with("Sepal")))
#> # A tibble: 3 x 5
#> # Groups:   Species [3]
#>   Sepal.Length Sepal.Width Petal.Length Petal.Width Species
#>          <dbl>       <dbl>        <dbl>       <dbl> <fct>  
#> 1          5.7         4.4          1.5         0.4 setosa 
#> 2          5.2         4.1          1.5         0.1 setosa 
#> 3          5.5         4.2          1.4         0.2 setosa

g %>% 
  bolero(mambo(~. > 4, starts_with("Sepal"), .op = or))
#> # A tibble: 150 x 5
#> # Groups:   Species [3]
#>    Sepal.Length Sepal.Width Petal.Length Petal.Width Species
#>           <dbl>       <dbl>        <dbl>       <dbl> <fct>  
#>  1          5.1         3.5          1.4         0.2 setosa 
#>  2          4.9         3            1.4         0.2 setosa 
#>  3          4.7         3.2          1.3         0.2 setosa 
#>  4          4.6         3.1          1.5         0.2 setosa 
#>  5          5           3.6          1.4         0.2 setosa 
#>  6          5.4         3.9          1.7         0.4 setosa 
#>  7          4.6         3.4          1.4         0.3 setosa 
#>  8          5           3.4          1.5         0.2 setosa 
#>  9          4.4         2.9          1.4         0.2 setosa 
#> 10          4.9         3.1          1.5         0.1 setosa 
#> # … with 140 more rows
```
