Apply a single function to multiple columns — swing • dance
…
##------- samba()

g %>%
  samba(
    swing(~. - mean(.), starts_with("Sepal"), .name = "centered_{var}")
  )
#> # A tibble: 150 x 7
#>    Sepal.Length Sepal.Width Petal.Length Petal.Width Species centered_Sepal.…
#>           <dbl>       <dbl>        <dbl>       <dbl> <fct>              <dbl>
#>  1          5.1         3.5          1.4         0.2 setosa            0.0940
#>  2          4.9         3            1.4         0.2 setosa           -0.106 
#>  3          4.7         3.2          1.3         0.2 setosa           -0.306 
#>  4          4.6         3.1          1.5         0.2 setosa           -0.406 
#>  5          5           3.6          1.4         0.2 setosa           -0.006 
#>  6          5.4         3.9          1.7         0.4 setosa            0.394 
#>  7          4.6         3.4          1.4         0.3 setosa           -0.406 
#>  8          5           3.4          1.5         0.2 setosa           -0.006 
#>  9          4.4         2.9          1.4         0.2 setosa           -0.606 
#> 10          4.9         3.1          1.5         0.1 setosa           -0.106 
#> # … with 140 more rows, and 1 more variable: centered_Sepal.Width <dbl>

g %>%
  samba(
    centered = twist(~. - mean(.), starts_with("Sepal"), .name = "centered_{var}")
  )
#> # A tibble: 150 x 6
#>    Sepal.Length Sepal.Width Petal.Length Petal.Width Species centered$center…
#>           <dbl>       <dbl>        <dbl>       <dbl> <fct>              <dbl>
#>  1          5.1         3.5          1.4         0.2 setosa            0.0940
#>  2          4.9         3            1.4         0.2 setosa           -0.106 
#>  3          4.7         3.2          1.3         0.2 setosa           -0.306 
#>  4          4.6         3.1          1.5         0.2 setosa           -0.406 
#>  5          5           3.6          1.4         0.2 setosa           -0.006 
#>  6          5.4         3.9          1.7         0.4 setosa            0.394 
#>  7          4.6         3.4          1.4         0.3 setosa           -0.406 
#>  8          5           3.4          1.5         0.2 setosa           -0.006 
#>  9          4.4         2.9          1.4         0.2 setosa           -0.606 
#> 10          4.9         3.1          1.5         0.1 setosa           -0.106 
#> # … with 140 more rows, and 1 more variable: $centered_Sepal.Width <dbl>
…
